<svg width="29" height="47" viewBox="0 0 29 47" fill="none" xmlns="http://www.w3.org/2000/svg">
<path d="M21.6264 44.7342C22.8273 45.9351 24.7743 45.9351 25.9751 44.7342C27.176 43.5334 27.176 41.5864 25.9751 40.3856L4.98831 19.3987L0.639632 23.7474L21.6264 44.7342Z" fill="white"/>
<path d="M25.9751 7.1094C27.1759 5.90854 27.1759 3.96157 25.9751 2.76072C24.7742 1.55987 22.8273 1.55987 21.6264 2.76072L0.639586 23.7475L4.98826 28.0962L25.9751 7.1094Z" fill="white"/>
</svg>
