<svg width="31" height="65" viewBox="0 0 31 65" fill="none" xmlns="http://www.w3.org/2000/svg">
<rect x="14.2749" y="0.249634" width="2" height="61.8875" fill="#84DD63"/>
<path d="M1.08301 49.0377L15.275 63.2297L29.4669 49.0377" stroke="#84DD63" stroke-width="2"/>
</svg>
