<svg width="372" height="383" viewBox="0 0 372 383" fill="none" xmlns="http://www.w3.org/2000/svg">
<circle cx="26.2345" cy="15.2604" r="14.9489" fill="#6384DD"/>
<circle cx="6.87219" cy="30.2096" r="6.54797" fill="#6384DD"/>
<circle cx="31.3105" cy="253.664" r="17.8901" fill="#6384DD"/>
<circle cx="353.635" cy="50.2094" r="17.8901" fill="#6384DD"/>
<circle cx="363.255" cy="73.3479" r="3.44411" fill="#6384DD"/>
<circle cx="338.97" cy="364.697" r="10.5301" fill="#6384DD"/>
<circle cx="349.5" cy="380.296" r="1.95131" fill="#6384DD"/>
<path d="M25.5 8.7876L25.5 349.273L349.5 364.697L349.5 8.7876H25.5Z" fill="#6384DD"/>
</svg>
